<?xml version="1.0" encoding="UTF-8" ?>
<testsuite tests="92" failures="0" name="com.tariq.bm.CucumberRunnerTest" time="16.479" errors="0" skipped="0">
  <properties>
    <property name="java.runtime.name" value="Java(TM) SE Runtime Environment"/>
    <property name="sun.boot.library.path" value="C:\Program Files\Java\jdk1.8.0_92\jre\bin"/>
    <property name="java.vm.version" value="25.92-b14"/>
    <property name="java.vm.vendor" value="Oracle Corporation"/>
    <property name="maven.multiModuleProjectDirectory" value="C:/Users/tariq/Desktop/myGit/SQA/java-cucumber/blacklist-check"/>
    <property name="java.vendor.url" value="http://java.oracle.com/"/>
    <property name="path.separator" value=";"/>
    <property name="guice.disable.misplaced.annotation.check" value="true"/>
    <property name="java.vm.name" value="Java HotSpot(TM) 64-Bit Server VM"/>
    <property name="file.encoding.pkg" value="sun.io"/>
    <property name="user.script" value=""/>
    <property name="user.country" value="US"/>
    <property name="sun.java.launcher" value="SUN_STANDARD"/>
    <property name="sun.os.patch.level" value=""/>
    <property name="java.vm.specification.name" value="Java Virtual Machine Specification"/>
    <property name="user.dir" value="C:\Users\tariq\Desktop\myGit\SQA\java-cucumber\blacklist-check"/>
    <property name="java.runtime.version" value="1.8.0_92-b14"/>
    <property name="java.awt.graphicsenv" value="sun.awt.Win32GraphicsEnvironment"/>
    <property name="java.endorsed.dirs" value="C:\Program Files\Java\jdk1.8.0_92\jre\lib\endorsed"/>
    <property name="os.arch" value="amd64"/>
    <property name="java.io.tmpdir" value="C:\Users\tariq\AppData\Local\Temp\"/>
    <property name="line.separator" value="
"/>
    <property name="java.vm.specification.vendor" value="Oracle Corporation"/>
    <property name="user.variant" value=""/>
    <property name="os.name" value="Windows 10"/>
    <property name="classworlds.conf" value="C:/Users/tariq/Desktop/software/apache-maven-3.3.9/bin/m2.conf"/>
    <property name="sun.jnu.encoding" value="Cp1252"/>
    <property name="java.library.path" value="C:\Program Files\Java\jdk1.8.0_92\bin;C:\Windows\Sun\Java\bin;C:\Windows\system32;C:\Windows;C:\Users\tariq\bin;C:\Program Files\Git\mingw64\bin;C:\Program Files\Git\usr\local\bin;C:\Program Files\Git\usr\bin;C:\Program Files\Git\usr\bin;C:\Program Files\Git\mingw64\bin;C:\Program Files\Git\usr\bin;C:\Users\tariq\bin;C:\ProgramData\Oracle\Java\javapath;C:\Program Files (x86)\Intel\iCLS Client;C:\Program Files\Intel\iCLS Client;C:\Windows\system32;C:\Windows;C:\Windows\System32\Wbem;C:\Windows\System32\WindowsPowerShell\v1.0;C:\Program Files (x86)\Intel\Intel(R) Management Engine Components\DAL;C:\Program Files\Intel\Intel(R) Management Engine Components\DAL;C:\Program Files (x86)\Intel\Intel(R) Management Engine Components\IPT;C:\Program Files\Intel\Intel(R) Management Engine Components\IPT;C:\Program Files (x86)\Skype\Phone;C:\Program Files\Microsoft SQL Server\110\Tools\Binn;C:\Program Files\Microsoft SQL Server\120\Tools\Binn;C:\xampp\mysql\bin;C:\Program Files\Microsoft SQL Server\Client SDK\ODBC\110\Tools\Binn;C:\Program Files (x86)\Microsoft SQL Server\120\Tools\Binn;C:\Program Files\Microsoft SQL Server\120\DTS\Binn;C:\Program Files (x86)\Microsoft SQL Server\120\Tools\Binn\ManagementStudio;C:\Program Files (x86)\Microsoft SQL Server\120\DTS\Binn;C:\Users\tariq\Desktop\software\apache-maven-3.3.9\bin;C:\Program Files\nodejs;C:\Windows\system32\config\systemprofile\.dnx\bin;C:\Program Files\Microsoft DNX\Dnvm;C:\Program Files\Microsoft SQL Server\130\Tools\Binn;C:\Program Files (x86)\Windows Kits\8.1\Windows Performance Toolkit;C:\Program Files (x86)\QuickTime\QTSystem;C:\Users\tariq\AppData\Roaming\npm;C:\Program Files\Git\usr\bin\vendor_perl;C:\Program Files\Git\usr\bin\core_perl;."/>
    <property name="java.specification.name" value="Java Platform API Specification"/>
    <property name="java.class.version" value="52.0"/>
    <property name="sun.management.compiler" value="HotSpot 64-Bit Tiered Compilers"/>
    <property name="os.version" value="10.0"/>
    <property name="user.home" value="C:\Users\tariq"/>
    <property name="user.timezone" value="Asia/Dhaka"/>
    <property name="java.awt.printerjob" value="sun.awt.windows.WPrinterJob"/>
    <property name="java.specification.version" value="1.8"/>
    <property name="file.encoding" value="Cp1252"/>
    <property name="user.name" value="tariq"/>
    <property name="java.class.path" value="C:/Users/tariq/Desktop/software/apache-maven-3.3.9/boot/plexus-classworlds-2.5.2.jar"/>
    <property name="java.vm.specification.version" value="1.8"/>
    <property name="sun.arch.data.model" value="64"/>
    <property name="java.home" value="C:\Program Files\Java\jdk1.8.0_92\jre"/>
    <property name="sun.java.command" value="org.codehaus.plexus.classworlds.launcher.Launcher test"/>
    <property name="java.specification.vendor" value="Oracle Corporation"/>
    <property name="user.language" value="en"/>
    <property name="awt.toolkit" value="sun.awt.windows.WToolkit"/>
    <property name="java.vm.info" value="mixed mode"/>
    <property name="java.version" value="1.8.0_92"/>
    <property name="java.ext.dirs" value="C:\Program Files\Java\jdk1.8.0_92\jre\lib\ext;C:\Windows\Sun\Java\lib\ext"/>
    <property name="sun.boot.class.path" value="C:\Program Files\Java\jdk1.8.0_92\jre\lib\resources.jar;C:\Program Files\Java\jdk1.8.0_92\jre\lib\rt.jar;C:\Program Files\Java\jdk1.8.0_92\jre\lib\sunrsasign.jar;C:\Program Files\Java\jdk1.8.0_92\jre\lib\jsse.jar;C:\Program Files\Java\jdk1.8.0_92\jre\lib\jce.jar;C:\Program Files\Java\jdk1.8.0_92\jre\lib\charsets.jar;C:\Program Files\Java\jdk1.8.0_92\jre\lib\jfr.jar;C:\Program Files\Java\jdk1.8.0_92\jre\classes"/>
    <property name="java.vendor" value="Oracle Corporation"/>
    <property name="maven.home" value="C:\Users\tariq\Desktop\software\apache-maven-3.3.9"/>
    <property name="file.separator" value="\"/>
    <property name="java.vendor.url.bug" value="http://bugreport.sun.com/bugreport/"/>
    <property name="sun.cpu.endian" value="little"/>
    <property name="sun.io.unicode.encoding" value="UnicodeLittle"/>
    <property name="sun.desktop" value="windows"/>
    <property name="sun.cpu.isalist" value="amd64"/>
  </properties>
  <testcase classname="Scenario: Only Run First Time" name="Given Cleaning Files" time="0"/>
  <testcase classname="Scenario: Only Run First Time" name="Scenario: Only Run First Time" time="2.264"/>
  <testcase classname="| bork.webmascot.com |" name="Given browse RBL" time="0"/>
  <testcase classname="| bork.webmascot.com |" name="When set URL bork.webmascot.com to check box" time="0"/>
  <testcase classname="| bork.webmascot.com |" name="Then click check" time="0"/>
  <testcase classname="| bork.webmascot.com |" name="Then write result bork.webmascot.com" time="0"/>
  <testcase classname="| bork.webmascot.com |" name="| bork.webmascot.com |" time="0.803"/>
  <testcase classname="| mx6.webmascot.com |" name="Given browse RBL" time="0"/>
  <testcase classname="| mx6.webmascot.com |" name="When set URL mx6.webmascot.com to check box" time="0"/>
  <testcase classname="| mx6.webmascot.com |" name="Then click check" time="0"/>
  <testcase classname="| mx6.webmascot.com |" name="Then write result mx6.webmascot.com" time="0"/>
  <testcase classname="| mx6.webmascot.com |" name="| mx6.webmascot.com |" time="0.855"/>
  <testcase classname="| mx7.webmascot.com |" name="Given browse RBL" time="0"/>
  <testcase classname="| mx7.webmascot.com |" name="When set URL mx7.webmascot.com to check box" time="0"/>
  <testcase classname="| mx7.webmascot.com |" name="Then click check" time="0"/>
  <testcase classname="| mx7.webmascot.com |" name="Then write result mx7.webmascot.com" time="0"/>
  <testcase classname="| mx7.webmascot.com |" name="| mx7.webmascot.com |" time="0.834"/>
  <testcase classname="| Bleep.bitmascot.com |" name="Given browse RBL" time="0"/>
  <testcase classname="| Bleep.bitmascot.com |" name="When set URL Bleep.bitmascot.com to check box" time="0"/>
  <testcase classname="| Bleep.bitmascot.com |" name="Then click check" time="0"/>
  <testcase classname="| Bleep.bitmascot.com |" name="Then write result Bleep.bitmascot.com" time="0"/>
  <testcase classname="| Bleep.bitmascot.com |" name="| Bleep.bitmascot.com |" time="0.815"/>
  <testcase classname="| cahill.webmascot.com |" name="Given browse RBL" time="0.001"/>
  <testcase classname="| cahill.webmascot.com |" name="When set URL cahill.webmascot.com to check box" time="0"/>
  <testcase classname="| cahill.webmascot.com |" name="Then click check" time="0"/>
  <testcase classname="| cahill.webmascot.com |" name="Then write result cahill.webmascot.com" time="0"/>
  <testcase classname="| cahill.webmascot.com |" name="| cahill.webmascot.com |" time="0.885"/>
  <testcase classname="| kewell.webmascot.com |" name="Given browse RBL" time="0"/>
  <testcase classname="| kewell.webmascot.com |" name="When set URL kewell.webmascot.com to check box" time="0"/>
  <testcase classname="| kewell.webmascot.com |" name="Then click check" time="0"/>
  <testcase classname="| kewell.webmascot.com |" name="Then write result kewell.webmascot.com" time="0"/>
  <testcase classname="| kewell.webmascot.com |" name="| kewell.webmascot.com |" time="0.783"/>
  <testcase classname="| liddy.webmascot.com |" name="Given browse RBL" time="0"/>
  <testcase classname="| liddy.webmascot.com |" name="When set URL liddy.webmascot.com to check box" time="0"/>
  <testcase classname="| liddy.webmascot.com |" name="Then click check" time="0"/>
  <testcase classname="| liddy.webmascot.com |" name="Then write result liddy.webmascot.com" time="0"/>
  <testcase classname="| liddy.webmascot.com |" name="| liddy.webmascot.com |" time="0.787"/>
  <testcase classname="| zimbra.webmascot.com |" name="Given browse RBL" time="0"/>
  <testcase classname="| zimbra.webmascot.com |" name="When set URL zimbra.webmascot.com to check box" time="0"/>
  <testcase classname="| zimbra.webmascot.com |" name="Then click check" time="0"/>
  <testcase classname="| zimbra.webmascot.com |" name="Then write result zimbra.webmascot.com" time="0"/>
  <testcase classname="| zimbra.webmascot.com |" name="| zimbra.webmascot.com |" time="0.756"/>
  <testcase classname="| bindi.webmascot.com |" name="Given browse RBL" time="0"/>
  <testcase classname="| bindi.webmascot.com |" name="When set URL bindi.webmascot.com to check box" time="0.001"/>
  <testcase classname="| bindi.webmascot.com |" name="Then click check" time="0"/>
  <testcase classname="| bindi.webmascot.com |" name="Then write result bindi.webmascot.com" time="0"/>
  <testcase classname="| bindi.webmascot.com |" name="| bindi.webmascot.com |" time="0.751"/>
  <testcase classname="| bork.webmascot.com |" name="Given browse MXTOOLBOX" time="0"/>
  <testcase classname="| bork.webmascot.com |" name="When set Mx URL bork.webmascot.com to check box" time="0"/>
  <testcase classname="| bork.webmascot.com |" name="Then click check for MX" time="0.001"/>
  <testcase classname="| bork.webmascot.com |" name="Then write MX result bork.webmascot.com" time="0"/>
  <testcase classname="| bork.webmascot.com |" name="| bork.webmascot.com |" time="0.748"/>
  <testcase classname="| mx6.webmascot.com |" name="Given browse MXTOOLBOX" time="0"/>
  <testcase classname="| mx6.webmascot.com |" name="When set Mx URL mx6.webmascot.com to check box" time="0.002"/>
  <testcase classname="| mx6.webmascot.com |" name="Then click check for MX" time="0.001"/>
  <testcase classname="| mx6.webmascot.com |" name="Then write MX result mx6.webmascot.com" time="0"/>
  <testcase classname="| mx6.webmascot.com |" name="| mx6.webmascot.com |" time="0.808"/>
  <testcase classname="| mx7.webmascot.com |" name="Given browse MXTOOLBOX" time="0"/>
  <testcase classname="| mx7.webmascot.com |" name="When set Mx URL mx7.webmascot.com to check box" time="0"/>
  <testcase classname="| mx7.webmascot.com |" name="Then click check for MX" time="0"/>
  <testcase classname="| mx7.webmascot.com |" name="Then write MX result mx7.webmascot.com" time="0"/>
  <testcase classname="| mx7.webmascot.com |" name="| mx7.webmascot.com |" time="0.75"/>
  <testcase classname="| Bleep.bitmascot.com |" name="Given browse MXTOOLBOX" time="0"/>
  <testcase classname="| Bleep.bitmascot.com |" name="When set Mx URL Bleep.bitmascot.com to check box" time="0"/>
  <testcase classname="| Bleep.bitmascot.com |" name="Then click check for MX" time="0"/>
  <testcase classname="| Bleep.bitmascot.com |" name="Then write MX result Bleep.bitmascot.com" time="0"/>
  <testcase classname="| Bleep.bitmascot.com |" name="| Bleep.bitmascot.com |" time="0.752"/>
  <testcase classname="| cahill.webmascot.com |" name="Given browse MXTOOLBOX" time="0"/>
  <testcase classname="| cahill.webmascot.com |" name="When set Mx URL cahill.webmascot.com to check box" time="0"/>
  <testcase classname="| cahill.webmascot.com |" name="Then click check for MX" time="0"/>
  <testcase classname="| cahill.webmascot.com |" name="Then write MX result cahill.webmascot.com" time="0.001"/>
  <testcase classname="| cahill.webmascot.com |" name="| cahill.webmascot.com |" time="0.744"/>
  <testcase classname="| kewell.webmascot.com |" name="Given browse MXTOOLBOX" time="0"/>
  <testcase classname="| kewell.webmascot.com |" name="When set Mx URL kewell.webmascot.com to check box" time="0"/>
  <testcase classname="| kewell.webmascot.com |" name="Then click check for MX" time="0"/>
  <testcase classname="| kewell.webmascot.com |" name="Then write MX result kewell.webmascot.com" time="0"/>
  <testcase classname="| kewell.webmascot.com |" name="| kewell.webmascot.com |" time="0.8"/>
  <testcase classname="| liddy.webmascot.com |" name="Given browse MXTOOLBOX" time="0"/>
  <testcase classname="| liddy.webmascot.com |" name="When set Mx URL liddy.webmascot.com to check box" time="0"/>
  <testcase classname="| liddy.webmascot.com |" name="Then click check for MX" time="0"/>
  <testcase classname="| liddy.webmascot.com |" name="Then write MX result liddy.webmascot.com" time="0"/>
  <testcase classname="| liddy.webmascot.com |" name="| liddy.webmascot.com |" time="0.792"/>
  <testcase classname="| zimbra.webmascot.com |" name="Given browse MXTOOLBOX" time="0"/>
  <testcase classname="| zimbra.webmascot.com |" name="When set Mx URL zimbra.webmascot.com to check box" time="0"/>
  <testcase classname="| zimbra.webmascot.com |" name="Then click check for MX" time="0"/>
  <testcase classname="| zimbra.webmascot.com |" name="Then write MX result zimbra.webmascot.com" time="0"/>
  <testcase classname="| zimbra.webmascot.com |" name="| zimbra.webmascot.com |" time="0.779"/>
  <testcase classname="| bindi.webmascot.com |" name="Given browse MXTOOLBOX" time="0"/>
  <testcase classname="| bindi.webmascot.com |" name="When set Mx URL bindi.webmascot.com to check box" time="0"/>
  <testcase classname="| bindi.webmascot.com |" name="Then click check for MX" time="0"/>
  <testcase classname="| bindi.webmascot.com |" name="Then write MX result bindi.webmascot.com" time="0"/>
  <testcase classname="| bindi.webmascot.com |" name="| bindi.webmascot.com |" time="0.766"/>
</testsuite>